<?xml version="1.0" encoding="UTF-8" standalone="no"?><svg xmlns="http://www.w3.org/2000/svg" xmlns:xlink="http://www.w3.org/1999/xlink" contentScriptType="application/ecmascript" contentStyleType="text/css" height="1701px" preserveAspectRatio="none" style="width:1061px;height:1701px;" version="1.1" viewBox="0 0 1061 1701" width="1061px" zoomAndPan="magnify"><defs><filter height="300%" id="f1rptnqwt99pgw" width="300%" x="-1" y="-1"><feGaussianBlur result="blurOut" stdDeviation="2.0"/><feColorMatrix in="blurOut" result="blurOut2" type="matrix" values="0 0 0 0 0 0 0 0 0 0 0 0 0 0 0 0 0 0 .4 0"/><feOffset dx="4.0" dy="4.0" in="blurOut2" result="blurOut3"/><feBlend in="SourceGraphic" in2="blurOut3" mode="normal"/></filter></defs><g><!--cluster clients--><path d="M135.0256,25.9793 C149.7562,7.2784 168.3077,6.0879 180.8584,28.4146 C191.444,10.8343 207.659,7.8267 221.5023,24.5554 C234.0366,4.3023 248.9337,6.3458 259.5612,26.3578 C275.626,5.439 291.2289,5.9816 307.0779,26.6047 C319.2795,7.2517 338.3413,8.9681 348.2836,28.9702 C361.1058,9.6859 378.1318,6.3793 392.8803,26.807 C402.6925,8.3933 420.5385,8.4369 429.2323,27.8809 C443.4689,5.957 460.3385,1.5705 476.8708,25.4956 C487.1436,9.2799 502.9333,9.8628 512.101,26.6743 C530.7394,7.7468 546.0522,3.9051 561.4228,30.2355 C571.3448,12.5716 587.6791,11.7738 600.0674,27.37 C614.366,8.7482 628.3222,7.7619 643.6876,26.1113 C656.1186,9.8366 669.5625,9.7965 681.742,26.4024 C697.0359,6.1992 717.7329,9.8115 729,31 C734.2068,28.9988 736.9629,32.141 736.3777,37.121 C755.2528,47.3267 755.9203,61.7833 741.2452,76.171 C754.4456,97.7909 747.0309,114.5594 722,119 C727.3688,118.5186 729.18,121.0741 727.0944,126.0101 C716.9515,145.9263 696.5259,146.6411 685.2459,127.2198 C674.014,151.5376 653.3092,152.3139 640.645,128.5484 C628.1966,147.2016 615.977,147.1754 602.3387,129.814 C589.4276,147.5766 568.7563,147.0938 558.491,126.7682 C546.6076,146.1315 534.6672,149.5256 518.4787,131.3578 C502.5126,152.5251 481.2174,152.1438 469.928,126.5066 C459.1231,144.1027 444.0443,149.8915 429.3481,130.8121 C415.799,152.9368 399.9695,151.1253 386.4401,130.7921 C375.0904,147.5127 356.2288,147.6117 347.7495,127.7557 C333.7095,148.5796 317.8295,154.0319 301.5259,130.0932 C287.6927,147.0327 275.1817,145.768 265.3379,126.1448 C253.4561,148.1161 235.7587,145.1295 222.6006,127.5229 C210.301,143.6966 190.3893,146.5958 182.0063,123.4767 C160.5608,143.7777 136.9697,142.8208 126,112 C129.8721,110.5526 132.6697,111.8846 132.393,116.4276 C106.8155,113.0764 101.1441,94.8623 116.5068,75.5864 C95.075,51.3565 99.6518,30.7157 133,24 C134.5662,23.5339 135.4231,24.4359 135.0256,25.9793 " fill="#FFFFFF" style="stroke: #000000; stroke-width: 1.5;"/><text fill="#000000" font-family="sans-serif" font-size="14" font-weight="bold" lengthAdjust="spacingAndGlyphs" textLength="52" x="401.5" y="41.9951">clients</text><!--cluster MustEncrypt--><polygon fill="#FFFFFF" filter="url(#f1rptnqwt99pgw)" points="126,53,136,43,300,43,300,109,290,119,126,119,126,53" style="stroke: #000000; stroke-width: 1.5;"/><line style="stroke: #000000; stroke-width: 1.5;" x1="290" x2="299" y1="53" y2="44"/><line style="stroke: #000000; stroke-width: 1.5;" x1="126" x2="290" y1="53" y2="53"/><line style="stroke: #000000; stroke-width: 1.5;" x1="290" x2="290" y1="53" y2="119"/><text fill="#000000" font-family="sans-serif" font-size="14" font-weight="bold" lengthAdjust="spacingAndGlyphs" textLength="98" x="160" y="68.9951">MustEncrypt</text><!--cluster SignOnly--><polygon fill="#FFFFFF" filter="url(#f1rptnqwt99pgw)" points="308,53,318,43,453,43,453,109,443,119,308,119,308,53" style="stroke: #000000; stroke-width: 1.5;"/><line style="stroke: #000000; stroke-width: 1.5;" x1="443" x2="452" y1="53" y2="44"/><line style="stroke: #000000; stroke-width: 1.5;" x1="308" x2="443" y1="53" y2="53"/><line style="stroke: #000000; stroke-width: 1.5;" x1="443" x2="443" y1="53" y2="119"/><text fill="#000000" font-family="sans-serif" font-size="14" font-weight="bold" lengthAdjust="spacingAndGlyphs" textLength="69" x="342" y="68.9951">SignOnly</text><!--cluster Fallback--><polygon fill="#FFFFFF" filter="url(#f1rptnqwt99pgw)" points="461,53,471,43,600,43,600,109,590,119,461,119,461,53" style="stroke: #000000; stroke-width: 1.5;"/><line style="stroke: #000000; stroke-width: 1.5;" x1="590" x2="599" y1="53" y2="44"/><line style="stroke: #000000; stroke-width: 1.5;" x1="461" x2="590" y1="53" y2="53"/><line style="stroke: #000000; stroke-width: 1.5;" x1="590" x2="590" y1="53" y2="119"/><text fill="#000000" font-family="sans-serif" font-size="14" font-weight="bold" lengthAdjust="spacingAndGlyphs" textLength="63" x="495" y="68.9951">Fallback</text><!--cluster Other--><polygon fill="#FFFFFF" filter="url(#f1rptnqwt99pgw)" points="608,53,618,43,729,43,729,109,719,119,608,119,608,53" style="stroke: #000000; stroke-width: 1.5;"/><line style="stroke: #000000; stroke-width: 1.5;" x1="719" x2="728" y1="53" y2="44"/><line style="stroke: #000000; stroke-width: 1.5;" x1="608" x2="719" y1="53" y2="53"/><line style="stroke: #000000; stroke-width: 1.5;" x1="719" x2="719" y1="53" y2="119"/><text fill="#000000" font-family="sans-serif" font-size="14" font-weight="bold" lengthAdjust="spacingAndGlyphs" textLength="45" x="642" y="68.9951">Other</text><!--cluster umschlagend_server--><polygon fill="#FFFFFF" filter="url(#f1rptnqwt99pgw)" points="14,176,24,166,749,166,749,1547,739,1557,14,1557,14,176" style="stroke: #000000; stroke-width: 1.5;"/><line style="stroke: #000000; stroke-width: 1.5;" x1="739" x2="748" y1="176" y2="167"/><line style="stroke: #000000; stroke-width: 1.5;" x1="14" x2="739" y1="176" y2="176"/><line style="stroke: #000000; stroke-width: 1.5;" x1="739" x2="739" y1="176" y2="1557"/><text fill="#000000" font-family="sans-serif" font-size="14" font-weight="bold" lengthAdjust="spacingAndGlyphs" textLength="164" x="295.5" y="191.9951">umschlagend_server</text><!--cluster docker_smtp_server--><polygon fill="#FFFFFF" filter="url(#f1rptnqwt99pgw)" points="505,240,515,230,741,230,741,296,731,306,505,306,505,240" style="stroke: #000000; stroke-width: 1.5;"/><line style="stroke: #000000; stroke-width: 1.5;" x1="731" x2="740" y1="240" y2="231"/><line style="stroke: #000000; stroke-width: 1.5;" x1="505" x2="731" y1="240" y2="240"/><line style="stroke: #000000; stroke-width: 1.5;" x1="731" x2="731" y1="240" y2="306"/><text fill="#000000" font-family="sans-serif" font-size="14" font-weight="bold" lengthAdjust="spacingAndGlyphs" textLength="160" x="539" y="255.9951">docker_smtp_server</text><!--cluster docker_umschlagend--><polygon fill="#FFFFFF" filter="url(#f1rptnqwt99pgw)" points="254,208,264,198,497,198,497,1539,487,1549,254,1549,254,208" style="stroke: #000000; stroke-width: 1.5;"/><line style="stroke: #000000; stroke-width: 1.5;" x1="487" x2="496" y1="208" y2="199"/><line style="stroke: #000000; stroke-width: 1.5;" x1="254" x2="487" y1="208" y2="208"/><line style="stroke: #000000; stroke-width: 1.5;" x1="487" x2="487" y1="208" y2="1549"/><text fill="#000000" font-family="sans-serif" font-size="14" font-weight="bold" lengthAdjust="spacingAndGlyphs" textLength="167" x="288" y="223.9951">docker_umschlagend</text><!--cluster umschlagend--><polygon fill="#FFFFFF" filter="url(#f1rptnqwt99pgw)" points="283,240,293,230,464,230,464,1531,454,1541,283,1541,283,240" style="stroke: #000000; stroke-width: 1.5;"/><line style="stroke: #000000; stroke-width: 1.5;" x1="454" x2="463" y1="240" y2="231"/><line style="stroke: #000000; stroke-width: 1.5;" x1="283" x2="454" y1="240" y2="240"/><line style="stroke: #000000; stroke-width: 1.5;" x1="454" x2="454" y1="240" y2="1541"/><text fill="#000000" font-family="sans-serif" font-size="14" font-weight="bold" lengthAdjust="spacingAndGlyphs" textLength="105" x="317" y="255.9951">umschlagend</text><!--cluster docker_keys_store--><polygon fill="#FFFFFF" filter="url(#f1rptnqwt99pgw)" points="22,868,32,858,246,858,246,924,236,934,22,934,22,868" style="stroke: #000000; stroke-width: 1.5;"/><line style="stroke: #000000; stroke-width: 1.5;" x1="236" x2="245" y1="868" y2="859"/><line style="stroke: #000000; stroke-width: 1.5;" x1="22" x2="236" y1="868" y2="868"/><line style="stroke: #000000; stroke-width: 1.5;" x1="236" x2="236" y1="868" y2="934"/><text fill="#000000" font-family="sans-serif" font-size="14" font-weight="bold" lengthAdjust="spacingAndGlyphs" textLength="148" x="56" y="883.9951">docker_keys_store</text><!--cluster Internet--><path d="M317.2266,1598.4726 C321.8327,1592.8031 326.0715,1591.0609 330.9696,1598.1584 C334.7337,1591.892 340.6856,1590.0777 345.1628,1597.4143 C348.4028,1590.6946 355.0154,1590.9324 358.6073,1597.0456 C362.4611,1590.1897 367.7639,1590.5821 371.6281,1597.0353 C375.9832,1591.0924 380.3153,1591.024 384.1161,1597.5886 C388.0168,1591.3238 394.7955,1590.6742 398.4438,1597.8574 C402.666,1592.7919 408.7133,1592.5681 411.5893,1599.3509 C415.8255,1593.0724 421.2484,1592.6572 424.944,1599.8855 C432.4783,1603.876 431.5732,1608.6572 426.161,1613.7815 C432.4547,1617.0259 433.1,1621.1441 428.3925,1626.3428 C433.9231,1631.556 433.7919,1637.7689 425.864,1640.5943 C432.1267,1645.6422 431.3401,1650.3239 423.8971,1653.2399 C420.5266,1659.0114 415.4184,1660.4446 411.4054,1653.8911 C408.4021,1661.3916 401.7314,1661.9608 396.8583,1655.8964 C392.4151,1661.9195 388.6481,1661.2814 384.5794,1655.5066 C381.108,1662.2862 376.6803,1663.5433 371.2116,1657.6061 C365.943,1663.5543 359.8653,1662.4316 357.1954,1654.9033 C354.0809,1660.775 348.9109,1661.2936 345.4583,1655.2358 C340.613,1661.8626 335.3954,1661.0556 330.6798,1655.0837 C326.352,1660.2506 321.9948,1659.9321 319.1031,1653.6337 C313.2278,1650.5997 311.6576,1645.7392 316.8314,1640.7561 C309.8168,1637.3168 308.7617,1631.3811 315.2796,1626.4716 C308.5848,1622.566 309.9989,1615.5626 315.9417,1612.2451 C309.1151,1607.7414 311.2037,1601.7776 317.2266,1598.4726 " fill="#FFFFFF" style="stroke: #000000; stroke-width: 1.5;"/><text fill="#000000" font-family="sans-serif" font-size="14" font-weight="bold" lengthAdjust="spacingAndGlyphs" textLength="63" x="338.5" y="1615.9951">Internet</text><!--entity wiki--><rect fill="#FEFECE" filter="url(#f1rptnqwt99pgw)" height="36.2969" style="stroke: #A80036; stroke-width: 1.5;" width="45" x="134.5" y="75"/><text fill="#000000" font-family="sans-serif" font-size="14" lengthAdjust="spacingAndGlyphs" textLength="25" x="144.5" y="97.9951">wiki</text><!--entity gitlab--><rect fill="#FEFECE" filter="url(#f1rptnqwt99pgw)" height="36.2969" style="stroke: #A80036; stroke-width: 1.5;" width="57" x="316.5" y="75"/><text fill="#000000" font-family="sans-serif" font-size="14" lengthAdjust="spacingAndGlyphs" textLength="37" x="326.5" y="97.9951">gitlab</text><!--entity blog--><rect fill="#FEFECE" filter="url(#f1rptnqwt99pgw)" height="36.2969" style="stroke: #A80036; stroke-width: 1.5;" width="50" x="542" y="75"/><text fill="#000000" font-family="sans-serif" font-size="14" lengthAdjust="spacingAndGlyphs" textLength="30" x="552" y="97.9951">blog</text><!--entity crm--><rect fill="#FEFECE" filter="url(#f1rptnqwt99pgw)" height="36.2969" style="stroke: #A80036; stroke-width: 1.5;" width="46" x="675" y="75"/><text fill="#000000" font-family="sans-serif" font-size="14" lengthAdjust="spacingAndGlyphs" textLength="26" x="685" y="97.9951">crm</text><!--entity QueueDirs--><polygon fill="#FEFECE" filter="url(#f1rptnqwt99pgw)" points="518,437,564,437,571,458,622,458,622,492.5938,518,492.5938,518,437" style="stroke: #000000; stroke-width: 1.5;"/><line style="stroke: #000000; stroke-width: 1.5;" x1="518" x2="571" y1="458" y2="458"/><text fill="#000000" font-family="sans-serif" font-size="14" lengthAdjust="spacingAndGlyphs" textLength="74" x="528" y="477.9951">QueueDirs</text><!--entity KeysStore--><path d="M95,1075 C95,1065 140,1065 140,1065 C140,1065 185,1065 185,1075 L185,1100.2969 C185,1110.2969 140,1110.2969 140,1110.2969 C140,1110.2969 95,1110.2969 95,1100.2969 L95,1075 " fill="#FEFECE" filter="url(#f1rptnqwt99pgw)" style="stroke: #000000; stroke-width: 1.5;"/><path d="M95,1075 C95,1085 140,1085 140,1085 C140,1085 185,1085 185,1075 " fill="none" style="stroke: #000000; stroke-width: 1.5;"/><text fill="#000000" font-family="sans-serif" font-size="14" lengthAdjust="spacingAndGlyphs" textLength="70" x="105" y="1101.9951">KeysStore</text><!--entity SMTPServer--><rect fill="#FEFECE" filter="url(#f1rptnqwt99pgw)" height="36.2969" style="stroke: #A80036; stroke-width: 1.5;" width="103" x="531.5" y="262"/><text fill="#000000" font-family="sans-serif" font-size="14" lengthAdjust="spacingAndGlyphs" textLength="83" x="541.5" y="284.9951">SMTPServer</text><!--entity ReadQueue--><rect fill="#FEFECE" filter="url(#f1rptnqwt99pgw)" height="36.2969" style="stroke: #A80036; stroke-width: 1.5;" width="103" x="331.5" y="262"/><rect fill="#FEFECE" height="5" style="stroke: #A80036; stroke-width: 1.5;" width="10" x="326.5" y="267"/><rect fill="#FEFECE" height="5" style="stroke: #A80036; stroke-width: 1.5;" width="10" x="326.5" y="288.2969"/><text fill="#000000" font-family="sans-serif" font-size="14" lengthAdjust="spacingAndGlyphs" textLength="83" x="341.5" y="284.9951">ReadQueue</text><!--entity ProcessEmail--><rect fill="#FEFECE" filter="url(#f1rptnqwt99pgw)" height="36.2969" style="stroke: #A80036; stroke-width: 1.5;" width="112" x="306" y="890"/><rect fill="#FEFECE" height="5" style="stroke: #A80036; stroke-width: 1.5;" width="10" x="301" y="895"/><rect fill="#FEFECE" height="5" style="stroke: #A80036; stroke-width: 1.5;" width="10" x="301" y="916.2969"/><text fill="#000000" font-family="sans-serif" font-size="14" lengthAdjust="spacingAndGlyphs" textLength="92" x="316" y="912.9951">ProcessEmail</text><!--entity SMTPClient--><rect fill="#FEFECE" filter="url(#f1rptnqwt99pgw)" height="36.2969" style="stroke: #A80036; stroke-width: 1.5;" width="98" x="321" y="1497"/><rect fill="#FEFECE" height="5" style="stroke: #A80036; stroke-width: 1.5;" width="10" x="316" y="1502"/><rect fill="#FEFECE" height="5" style="stroke: #A80036; stroke-width: 1.5;" width="10" x="316" y="1523.2969"/><text fill="#000000" font-family="sans-serif" font-size="14" lengthAdjust="spacingAndGlyphs" textLength="78" x="331" y="1519.9951">SMTPClient</text><!--entity ImportKeys--><rect fill="#FEFECE" filter="url(#f1rptnqwt99pgw)" height="36.2969" style="stroke: #A80036; stroke-width: 1.5;" width="97" x="31.5" y="890"/><text fill="#000000" font-family="sans-serif" font-size="14" lengthAdjust="spacingAndGlyphs" textLength="77" x="41.5" y="912.9951">ImportKeys</text><!--entity smtp_server--><rect fill="#FEFECE" filter="url(#f1rptnqwt99pgw)" height="36.2969" style="stroke: #A80036; stroke-width: 1.5;" width="105" x="317.5" y="1617"/><text fill="#000000" font-family="sans-serif" font-size="14" lengthAdjust="spacingAndGlyphs" textLength="85" x="327.5" y="1639.9951">smtp_server</text><!--link wiki to SMTPServer--><path d="M134.1572,101.5728 C105.3029,113.5834 61.8197,136.3796 83,158 C98.1266,173.4409 452.1728,157.3908 472,166 C515.7738,185.0071 551.0171,230.2768 569.3085,257.7073 " fill="none" id="wiki-&gt;SMTPServer" style="stroke: #A80036; stroke-width: 1.0;"/><polygon fill="#A80036" points="572.0974,261.9498,570.4961,252.232,569.3509,257.7717,563.8111,256.6265,572.0974,261.9498" style="stroke: #A80036; stroke-width: 1.0;"/><text fill="#000000" font-family="sans-serif" font-size="13" lengthAdjust="spacingAndGlyphs" textLength="231" x="84" y="154.0669">SMTPS (umschlagend.example:465)</text><!--link gitlab to SMTPServer--><path d="M333.1166,111.0014 C325.1724,125.4976 318.1462,145.4596 330,158 C340.8554,169.4842 457.6194,159.4481 472,166 C515.1888,185.677 550.403,230.2894 568.8937,257.5048 " fill="none" id="gitlab-&gt;SMTPServer" style="stroke: #A80036; stroke-width: 1.0;"/><polygon fill="#A80036" points="571.7164,261.7169,570.0288,252.0137,568.9329,257.5634,563.3832,256.4674,571.7164,261.7169" style="stroke: #A80036; stroke-width: 1.0;"/><text fill="#000000" font-family="sans-serif" font-size="13" lengthAdjust="spacingAndGlyphs" textLength="231" x="331" y="154.0669">SMTPS (umschlagend.example:465)</text><!--link blog to SMTPServer--><path d="M568.5633,111.2708 C571.4862,145.4327 577.7745,218.927 581.0009,256.6354 " fill="none" id="blog-&gt;SMTPServer" style="stroke: #A80036; stroke-width: 1.0;"/><polygon fill="#A80036" points="581.4539,261.9303,584.672,252.622,581.0276,256.9485,576.7011,253.3041,581.4539,261.9303" style="stroke: #A80036; stroke-width: 1.0;"/><text fill="#000000" font-family="sans-serif" font-size="13" lengthAdjust="spacingAndGlyphs" textLength="231" x="573" y="154.0669">SMTPS (umschlagend.example:465)</text><!--link crm to SMTPServer--><path d="M721.1554,96.2356 C760.8432,102.8491 835.52,120.5626 813,158 C775.6262,220.1305 694.7857,252.2995 639.6244,267.6607 " fill="none" id="crm-&gt;SMTPServer" style="stroke: #A80036; stroke-width: 1.0;"/><polygon fill="#A80036" points="634.702,269.006,644.4381,270.4919,639.5251,267.6879,642.3291,262.7749,634.702,269.006" style="stroke: #A80036; stroke-width: 1.0;"/><text fill="#000000" font-family="sans-serif" font-size="13" lengthAdjust="spacingAndGlyphs" textLength="231" x="818" y="154.0669">SMTPS (umschlagend.example:465)</text><!--link SMTPServer to QueueDirs--><path d="M581.7298,298.0754 C579.5531,329.052 575.0793,392.7177 572.3294,431.851 " fill="none" id="SMTPServer-&gt;QueueDirs" style="stroke: #A80036; stroke-width: 1.0;"/><polygon fill="#A80036" points="571.9698,436.9684,576.591,428.271,572.3204,431.9807,568.6107,427.7101,571.9698,436.9684" style="stroke: #A80036; stroke-width: 1.0;"/><text fill="#000000" font-family="sans-serif" font-size="13" lengthAdjust="spacingAndGlyphs" textLength="45" x="578" y="372.0669">fs write</text><!--reverse link ReadQueue to QueueDirs--><path d="M404.8524,301.6187 C438.7882,335.1915 504.1486,399.8529 541.6654,436.9684 " fill="none" id="ReadQueue&lt;-QueueDirs" style="stroke: #A80036; stroke-width: 1.0;"/><polygon fill="#A80036" points="401.2708,298.0754,404.8559,307.2486,404.8254,301.5918,410.4821,301.5613,401.2708,298.0754" style="stroke: #A80036; stroke-width: 1.0;"/><text fill="#000000" font-family="sans-serif" font-size="13" lengthAdjust="spacingAndGlyphs" textLength="78" x="481" y="372.0669">fs read/write</text><!--link ReadQueue to ProcessEmail--><path d="M375.9076,298.4509 C372.7589,307.2777 369.2617,318.0646 367,328 C363.0721,345.2542 362,349.8044 362,367.5 C362,367.5 362,367.5 362,818.5 C362,840.8896 362,866.4297 362,884.4803 " fill="none" id="ReadQueue-&gt;ProcessEmail" style="stroke: #A80036; stroke-width: 1.0;"/><polygon fill="#A80036" points="362,889.83,366,880.83,362,884.83,358,880.83,362,889.83" style="stroke: #A80036; stroke-width: 1.0;"/><text fill="#000000" font-family="sans-serif" font-size="13" lengthAdjust="spacingAndGlyphs" textLength="76" x="363" y="629.0669">function call</text><!--reverse link ProcessEmail to KeysStore--><path d="M335.5382,929.3959 C293.3702,963.4912 211.2943,1029.8544 168.1112,1064.7705 " fill="none" id="ProcessEmail&lt;-KeysStore" style="stroke: #A80036; stroke-width: 1.0;"/><polygon fill="#A80036" points="339.4918,926.1992,329.9783,928.7475,335.6038,929.3429,335.0083,934.9684,339.4918,926.1992" style="stroke: #A80036; stroke-width: 1.0;"/><text fill="#000000" font-family="sans-serif" font-size="13" lengthAdjust="spacingAndGlyphs" textLength="90" x="265" y="1000.0669">db connection</text><!--link ProcessEmail to SMTPClient--><path d="M364.6195,926.0547 C366.9526,943.7165 370,971.3982 370,995.5 C370,995.5 370,995.5 370,1435.5 C370,1454.3485 370,1475.7106 370,1491.541 " fill="none" id="ProcessEmail-&gt;SMTPClient" style="stroke: #A80036; stroke-width: 1.0;"/><polygon fill="#A80036" points="370,1496.6858,374,1487.6858,370,1491.6858,366,1487.6858,370,1496.6858" style="stroke: #A80036; stroke-width: 1.0;"/><text fill="#000000" font-family="sans-serif" font-size="13" lengthAdjust="spacingAndGlyphs" textLength="76" x="371" y="1246.0669">function call</text><!--link ImportKeys to KeysStore--><path d="M84.5304,926.2159 C89.5016,945.6516 97.9817,977.2591 107,1004 C113.3651,1022.8736 121.5978,1043.7096 128.2478,1059.8466 " fill="none" id="ImportKeys-&gt;KeysStore" style="stroke: #A80036; stroke-width: 1.0;"/><polygon fill="#A80036" points="130.257,1064.6964,130.5077,1054.8507,128.3433,1060.0771,123.1169,1057.9127,130.257,1064.6964" style="stroke: #A80036; stroke-width: 1.0;"/><text fill="#000000" font-family="sans-serif" font-size="13" lengthAdjust="spacingAndGlyphs" textLength="90" x="108" y="1000.0669">db connection</text><!--link SMTPClient to smtp_server--><path d="M370,1533.2254 C370,1554.2274 370,1588.786 370,1611.7181 " fill="none" id="SMTPClient-&gt;smtp_server" style="stroke: #A80036; stroke-width: 1.0;"/><polygon fill="#A80036" points="370,1616.9963,374,1607.9963,370,1611.9963,366,1607.9963,370,1616.9963" style="stroke: #A80036; stroke-width: 1.0;"/><text fill="#000000" font-family="sans-serif" font-size="13" lengthAdjust="spacingAndGlyphs" textLength="200" x="371" y="1578.0669">SMTPS (example.example:465)</text><text fill="#888888" font-family="sans-serif" font-size="10" lengthAdjust="spacingAndGlyphs" textLength="351" x="358.5" y="1688.2822">NOTE: The arrows reflect how data flows, not who originate the requests</text><!--
@startuml

cloud clients {
    node MustEncrypt {
        agent wiki
    }
    node SignOnly {
        agent gitlab
    }
    node Fallback {
        agent blog
    }
    node Other {
        agent crm
    }
}



node umschlagend_server {
    node docker_smtp_server {
        agent SMTPServer
    }
    folder QueueDirs
    node docker_umschlagend {
        node umschlagend {
            component ReadQueue
            component ProcessEmail
            component SMTPClient
        }
    }
    node docker_keys_store {
        agent ImportKeys
    }
    database KeysStore
}

wiki - -> SMTPServer : SMTPS (umschlagend.example:465)
gitlab - -> SMTPServer: SMTPS (umschlagend.example:465)
blog - -> SMTPServer: SMTPS (umschlagend.example:465)
crm - -> SMTPServer: SMTPS (umschlagend.example:465)


SMTPServer - -> QueueDirs: fs write
ReadQueue <- - QueueDirs: fs read/write
ReadQueue - -> ProcessEmail: function call
ProcessEmail <- - KeysStore: db connection
ProcessEmail - -> SMTPClient: function call
ImportKeys - -> KeysStore: db connection

cloud Internet {
    agent smtp_server
}

SMTPClient - -> smtp_server: SMTPS (example.example:465)

footer NOTE: The arrows reflect how data flows, not who originate the requests

@enduml

PlantUML version 1.2019.09(Mon Aug 26 16:19:51 GMT 2019)
(GPL source distribution)
Java Runtime: OpenJDK Runtime Environment
JVM: OpenJDK 64-Bit Server VM
Java Version: 11.0.5+10-post-Debian-1deb10u1
Operating System: Linux
OS Version: 4.19.0-6-amd64
Default Encoding: UTF-8
Language: en
Country: US
--></g></svg>